\relax 
\@writefile{toc}{\contentsline {section}{\numberline {1}Objective}{1}\protected@file@percent }
\@writefile{lof}{\contentsline {figure}{\numberline {1}{\ignorespaces Simple Electromagnet}}{1}\protected@file@percent }
\@writefile{toc}{\contentsline {subsection}{\numberline {1.1}Engineering Connection}{2}\protected@file@percent }
\@writefile{toc}{\contentsline {section}{\numberline {2}Types of Sugar}{2}\protected@file@percent }
\@writefile{toc}{\contentsline {section}{\numberline {3}Heating Sugar}{2}\protected@file@percent }
\gdef \LT@i {\LT@entry 
    {4}{62.5557pt}\LT@entry 
    {1}{47.27783pt}\LT@entry 
    {1}{46.5834pt}\LT@entry 
    {1}{102.33354pt}\LT@entry 
    {4}{119.63916pt}}
\citation{Smith:2012qr}
\@writefile{toc}{\contentsline {section}{\numberline {4}Sample Calculation}{3}\protected@file@percent }
\@writefile{toc}{\contentsline {section}{\numberline {5}Results and Conclusions}{3}\protected@file@percent }
\@writefile{lof}{\contentsline {figure}{\numberline {2}{\ignorespaces Figure caption.}}{3}\protected@file@percent }
\@writefile{toc}{\contentsline {section}{\numberline {6}Discussion of Experimental Uncertainty}{3}\protected@file@percent }
\bibstyle{apalike}
\bibdata{sample}
\bibcite{Smith:2012qr}{{1}{2012}{{Smith and Jones}}{{}}}
\@writefile{toc}{\contentsline {section}{\numberline {7}Answers to Definitions}{4}\protected@file@percent }
