This is BibTeX, Version 0.99d (TeX Live 2020)
Capacity: max_strings=200000, hash_size=200000, hash_prime=170003
The top-level auxiliary file: SugarScience.aux
The style file: apalike.bst
Database file #1: sample.bib
You've used 1 entry,
            1935 wiz_defined-function locations,
            478 strings with 3760 characters,
and the built_in function-call counts, 341 in all, are:
= -- 31
> -- 13
< -- 1
+ -- 4
- -- 4
* -- 25
:= -- 65
add.period$ -- 3
call.type$ -- 1
change.case$ -- 7
chr.to.int$ -- 1
cite$ -- 1
duplicate$ -- 14
empty$ -- 24
format.name$ -- 7
if$ -- 65
int.to.chr$ -- 1
int.to.str$ -- 0
missing$ -- 2
newline$ -- 8
num.names$ -- 3
pop$ -- 8
preamble$ -- 1
purify$ -- 7
quote$ -- 0
skip$ -- 11
stack$ -- 0
substring$ -- 12
swap$ -- 1
text.length$ -- 0
text.prefix$ -- 0
top$ -- 0
type$ -- 4
warning$ -- 0
while$ -- 2
width$ -- 0
write$ -- 15
