\relax 
\@writefile{toc}{\contentsline {section}{\numberline {1}Objective}{1}\protected@file@percent }
\@writefile{toc}{\contentsline {subsection}{\numberline {1.1}Engineering Connection}{1}\protected@file@percent }
\@writefile{toc}{\contentsline {subsection}{\numberline {1.2}Learning Objectives}{1}\protected@file@percent }
\@writefile{toc}{\contentsline {section}{\numberline {2}Introduction}{1}\protected@file@percent }
\@writefile{toc}{\contentsline {section}{\numberline {3}Activities and Procedures}{2}\protected@file@percent }
\@writefile{toc}{\contentsline {subsection}{\numberline {3.1}Making Magnets}{2}\protected@file@percent }
\@writefile{lof}{\contentsline {figure}{\numberline {1}{\ignorespaces Making Magnets}}{2}\protected@file@percent }
\@writefile{toc}{\contentsline {subsubsection}{\numberline {3.1.1}Think Like a Scientist}{2}\protected@file@percent }
\@writefile{toc}{\contentsline {subsection}{\numberline {3.2}Magnetometer}{3}\protected@file@percent }
\@writefile{lof}{\contentsline {figure}{\numberline {2}{\ignorespaces Magnetometer}}{3}\protected@file@percent }
\@writefile{toc}{\contentsline {subsubsection}{\numberline {3.2.1}Think Like a Scientist}{3}\protected@file@percent }
\@writefile{toc}{\contentsline {subsection}{\numberline {3.3}Columbus Compass}{4}\protected@file@percent }
\@writefile{lof}{\contentsline {figure}{\numberline {3}{\ignorespaces Columbus Compass}}{4}\protected@file@percent }
\@writefile{toc}{\contentsline {subsubsection}{\numberline {3.3.1}Think Like a Scientist}{4}\protected@file@percent }
\@writefile{toc}{\contentsline {subsection}{\numberline {3.4}Solenoid}{4}\protected@file@percent }
\@writefile{lof}{\contentsline {figure}{\numberline {4}{\ignorespaces Solenoid}}{5}\protected@file@percent }
\@writefile{toc}{\contentsline {subsubsection}{\numberline {3.4.1}Think like a scientist}{5}\protected@file@percent }
\@writefile{toc}{\contentsline {subsection}{\numberline {3.5}Electromagnets}{5}\protected@file@percent }
\@writefile{lof}{\contentsline {figure}{\numberline {5}{\ignorespaces Electromagnet}}{6}\protected@file@percent }
\@writefile{toc}{\contentsline {subsubsection}{\numberline {3.5.1}Think Like a Scientist}{6}\protected@file@percent }
