\relax 
\bibstyle{biblatex}
\bibdata{AirRockets-blx,resources}
\citation{biblatex-control}
\abx@aux@refcontext{nty/global//global/global}
\providecommand\@newglossary[4]{}
\@newglossary{main}{glg}{gls}{glo}
\providecommand\@glsorder[1]{}
\providecommand\@istfilename[1]{}
\@istfilename{AirRockets.ist}
\@glsorder{word}
\@writefile{toc}{\boolfalse {citerequest}\boolfalse {citetracker}\boolfalse {pagetracker}\boolfalse {backtracker}\relax }
\@writefile{lof}{\boolfalse {citerequest}\boolfalse {citetracker}\boolfalse {pagetracker}\boolfalse {backtracker}\relax }
\@writefile{lot}{\boolfalse {citerequest}\boolfalse {citetracker}\boolfalse {pagetracker}\boolfalse {backtracker}\relax }
\citation{*}
\@writefile{toc}{\defcounter {refsection}{0}\relax }\@writefile{toc}{\contentsline {section}{\numberline {1}Objective}{3}\protected@file@percent }
\@writefile{toc}{\defcounter {refsection}{0}\relax }\@writefile{toc}{\contentsline {section}{\numberline {2}Description}{3}\protected@file@percent }
\@writefile{toc}{\defcounter {refsection}{0}\relax }\@writefile{toc}{\contentsline {section}{\numberline {3}Materials}{3}\protected@file@percent }
\@writefile{toc}{\defcounter {refsection}{0}\relax }\@writefile{toc}{\contentsline {section}{\numberline {4}Rocket Design}{3}\protected@file@percent }
\@writefile{toc}{\defcounter {refsection}{0}\relax }\@writefile{toc}{\contentsline {subsection}{\numberline {4.1}Weight}{3}\protected@file@percent }
\@writefile{lot}{\defcounter {refsection}{0}\relax }\@writefile{lot}{\contentsline {table}{\numberline {1}{\ignorespaces Rocket Parameters}}{4}\protected@file@percent }
\newlabel{t:1}{{1}{4}}
\@writefile{lof}{\defcounter {refsection}{0}\relax }\@writefile{lof}{\contentsline {figure}{\numberline {1}{\ignorespaces Effect of Mass on Height}}{4}\protected@file@percent }
\newlabel{fig:1}{{1}{4}}
\@writefile{lof}{\defcounter {refsection}{0}\relax }\@writefile{lof}{\contentsline {figure}{\numberline {2}{\ignorespaces Mass vs Velocity}}{5}\protected@file@percent }
\newlabel{fig:2}{{2}{5}}
\@writefile{lof}{\defcounter {refsection}{0}\relax }\@writefile{lof}{\contentsline {figure}{\numberline {3}{\ignorespaces Effect of Mass on Flight Time}}{6}\protected@file@percent }
\newlabel{fig:3}{{3}{6}}
\@writefile{lof}{\defcounter {refsection}{0}\relax }\@writefile{lof}{\contentsline {figure}{\numberline {4}{\ignorespaces Effect of Mass on G-force}}{7}\protected@file@percent }
\newlabel{fig:4}{{4}{7}}
\@writefile{toc}{\defcounter {refsection}{0}\relax }\@writefile{toc}{\contentsline {subsection}{\numberline {4.2}Aerodynamics}{7}\protected@file@percent }
\@writefile{lof}{\defcounter {refsection}{0}\relax }\@writefile{lof}{\contentsline {figure}{\numberline {5}{\ignorespaces Effect of Drag on Height}}{8}\protected@file@percent }
\newlabel{fig:5}{{5}{8}}
\@writefile{lof}{\defcounter {refsection}{0}\relax }\@writefile{lof}{\contentsline {figure}{\numberline {6}{\ignorespaces Effect of Drag on Terminal Velocity}}{9}\protected@file@percent }
\newlabel{fig:6}{{6}{9}}
\@writefile{toc}{\defcounter {refsection}{0}\relax }\@writefile{toc}{\contentsline {section}{\numberline {5}Flight Equations}{9}\protected@file@percent }
\@writefile{toc}{\defcounter {refsection}{0}\relax }\@writefile{toc}{\contentsline {subsection}{\numberline {5.1}Air Rockets vs Continuous Thrust Rockets}{9}\protected@file@percent }
\@writefile{toc}{\defcounter {refsection}{0}\relax }\@writefile{toc}{\contentsline {subsection}{\numberline {5.2}Ballistic Flight}{10}\protected@file@percent }
\@writefile{toc}{\defcounter {refsection}{0}\relax }\@writefile{toc}{\contentsline {subsection}{\numberline {5.3}Flight Equations}{10}\protected@file@percent }
\@writefile{toc}{\defcounter {refsection}{0}\relax }\@writefile{toc}{\contentsline {subsubsection}{\numberline {5.3.1}Air Rocket Launch Equations}{10}\protected@file@percent }
\@writefile{toc}{\defcounter {refsection}{0}\relax }\@writefile{toc}{\contentsline {subsubsection}{\numberline {5.3.2}Ballistic Flight Equations}{10}\protected@file@percent }
\@writefile{toc}{\defcounter {refsection}{0}\relax }\@writefile{toc}{\contentsline {subsubsection}{\numberline {5.3.3}Flight Equations with Drag}{12}\protected@file@percent }
\@writefile{toc}{\defcounter {refsection}{0}\relax }\@writefile{toc}{\contentsline {subsection}{\numberline {5.4}Calculating the Height Using Trigonometry}{13}\protected@file@percent }
\@writefile{toc}{\defcounter {refsection}{0}\relax }\@writefile{toc}{\contentsline {section}{\numberline {6}Procedure}{13}\protected@file@percent }
\@writefile{toc}{\defcounter {refsection}{0}\relax }\@writefile{toc}{\contentsline {section}{\numberline {7}Discussion}{15}\protected@file@percent }
\@writefile{toc}{\defcounter {refsection}{0}\relax }\@writefile{toc}{\contentsline {section}{\numberline {8}Assessment}{15}\protected@file@percent }
\@writefile{toc}{\defcounter {refsection}{0}\relax }\@writefile{toc}{\contentsline {section}{\numberline {9}Safety Plan}{15}\protected@file@percent }
\@writefile{toc}{\defcounter {refsection}{0}\relax }\@writefile{toc}{\contentsline {subsection}{\numberline {9.1}Rocket Launch Site}{16}\protected@file@percent }
\@writefile{toc}{\defcounter {refsection}{0}\relax }\@writefile{toc}{\contentsline {subsection}{\numberline {9.2}Rocket Launcher Setup}{16}\protected@file@percent }
\@writefile{toc}{\defcounter {refsection}{0}\relax }\@writefile{toc}{\contentsline {subsection}{\numberline {9.3}Launch Crew}{16}\protected@file@percent }
\@writefile{toc}{\defcounter {refsection}{0}\relax }\@writefile{toc}{\contentsline {subsection}{\numberline {9.4}Launch and Recovery}{16}\protected@file@percent }
\@writefile{toc}{\defcounter {refsection}{0}\relax }\@writefile{toc}{\contentsline {section}{\numberline {10}Data Recording Sheets}{16}\protected@file@percent }
\@writefile{toc}{\defcounter {refsection}{0}\relax }\@writefile{toc}{\contentsline {section}{\numberline {11}Bonus: Python Code}{20}\protected@file@percent }
\@writefile{toc}{\defcounter {refsection}{0}\relax }\@writefile{toc}{\contentsline {section}{Glossary}{21}\protected@file@percent }
\citation{*}
\abx@aux@refcontextdefaultsdone
\abx@aux@defaultrefcontext{0}{noauthor_air_nodate-2}{nty/global//global/global}
\abx@aux@defaultrefcontext{0}{noauthor_air_nodate-1}{nty/global//global/global}
\abx@aux@defaultrefcontext{0}{noauthor_air_nodate}{nty/global//global/global}
\abx@aux@defaultrefcontext{0}{noauthor_ballistic_nodate}{nty/global//global/global}
\abx@aux@defaultrefcontext{0}{noauthor_educator_nodate}{nty/global//global/global}
\abx@aux@defaultrefcontext{0}{noauthor_flight_nodate-1}{nty/global//global/global}
\abx@aux@defaultrefcontext{0}{noauthor_flight_nodate}{nty/global//global/global}
\abx@aux@defaultrefcontext{0}{noauthor_g-force_2021}{nty/global//global/global}
\abx@aux@defaultrefcontext{0}{noauthor_gravitational_2021}{nty/global//global/global}
\abx@aux@defaultrefcontext{0}{noauthor_guided_nodate}{nty/global//global/global}
\abx@aux@defaultrefcontext{0}{noauthor_how-tuesday_nodate}{nty/global//global/global}
\abx@aux@defaultrefcontext{0}{marsnasagov_atlas_nodate}{nty/global//global/global}
\abx@aux@defaultrefcontext{0}{mikeasaurus_compressed_nodate}{nty/global//global/global}
\abx@aux@defaultrefcontext{0}{noauthor_nasa_nodate}{nty/global//global/global}
\abx@aux@defaultrefcontext{0}{noauthor_ride_nodate}{nty/global//global/global}
\abx@aux@defaultrefcontext{0}{noauthor_rocketsairrocketsipynb_nodate}{nty/global//global/global}
\abx@aux@defaultrefcontext{0}{rodriguez__nodate}{nty/global//global/global}
\abx@aux@defaultrefcontext{0}{ronningen_sky-high_nodate}{nty/global//global/global}
\abx@aux@defaultrefcontext{0}{noauthor_sky-high_nodate}{nty/global//global/global}
\abx@aux@defaultrefcontext{0}{noauthor_terminal_nodate}{nty/global//global/global}
\abx@aux@defaultlabelprefix{0}{noauthor_air_nodate-2}{}
\abx@aux@defaultlabelprefix{0}{noauthor_air_nodate-1}{}
\abx@aux@defaultlabelprefix{0}{noauthor_air_nodate}{}
\abx@aux@defaultlabelprefix{0}{noauthor_ballistic_nodate}{}
\abx@aux@defaultlabelprefix{0}{noauthor_educator_nodate}{}
\abx@aux@defaultlabelprefix{0}{noauthor_flight_nodate-1}{}
\abx@aux@defaultlabelprefix{0}{noauthor_flight_nodate}{}
\abx@aux@defaultlabelprefix{0}{noauthor_g-force_2021}{}
\abx@aux@defaultlabelprefix{0}{noauthor_gravitational_2021}{}
\abx@aux@defaultlabelprefix{0}{noauthor_guided_nodate}{}
\abx@aux@defaultlabelprefix{0}{noauthor_how-tuesday_nodate}{}
\abx@aux@defaultlabelprefix{0}{marsnasagov_atlas_nodate}{}
\abx@aux@defaultlabelprefix{0}{mikeasaurus_compressed_nodate}{}
\abx@aux@defaultlabelprefix{0}{noauthor_nasa_nodate}{}
\abx@aux@defaultlabelprefix{0}{noauthor_ride_nodate}{}
\abx@aux@defaultlabelprefix{0}{noauthor_rocketsairrocketsipynb_nodate}{}
\abx@aux@defaultlabelprefix{0}{rodriguez__nodate}{}
\abx@aux@defaultlabelprefix{0}{ronningen_sky-high_nodate}{}
\abx@aux@defaultlabelprefix{0}{noauthor_sky-high_nodate}{}
\abx@aux@defaultlabelprefix{0}{noauthor_terminal_nodate}{}
\@writefile{toc}{\defcounter {refsection}{0}\relax }\@writefile{toc}{\contentsline {section}{References}{22}\protected@file@percent }
