\relax 
\@setckpt{datasheetsvg.pdf}{
\setcounter{page}{15}
\setcounter{equation}{19}
\setcounter{enumi}{13}
\setcounter{enumii}{0}
\setcounter{enumiii}{0}
\setcounter{enumiv}{0}
\setcounter{footnote}{0}
\setcounter{mpfootnote}{0}
\setcounter{part}{0}
\setcounter{section}{10}
\setcounter{subsection}{0}
\setcounter{subsubsection}{0}
\setcounter{paragraph}{0}
\setcounter{subparagraph}{0}
\setcounter{figure}{6}
\setcounter{table}{1}
\setcounter{parentequation}{0}
\setcounter{float@type}{4}
}
