<?xml version="1.0" encoding="utf-8"?>
<svg xmlns="http://www.w3.org/2000/svg"
    xmlns:xlink="http://www.w3.org/1999/xlink"
    width="747" height="1020" viewBox="-10 -10 747 1020">
<defs>
<style type="text/css"><![CDATA[
line {
    stroke: #000000;
    stroke-linecap: square;
    stroke-width: 1;
}
]]></style>
</defs>
<line x1="0.0" y1="45.45454545454545" x2="45.4375" y2="45.45454545454545"/>
<line x1="45.4375" y1="45.45454545454545" x2="45.4375" y2="90.9090909090909"/>
<line x1="45.4375" y1="90.9090909090909" x2="45.4375" y2="136.36363636363637"/>
<line x1="45.4375" y1="136.36363636363637" x2="45.4375" y2="181.8181818181818"/>
<line x1="45.4375" y1="272.72727272727275" x2="45.4375" y2="318.1818181818182"/>
<line x1="45.4375" y1="318.1818181818182" x2="45.4375" y2="363.6363636363636"/>
<line x1="45.4375" y1="363.6363636363636" x2="45.4375" y2="409.09090909090907"/>
<line x1="45.4375" y1="409.09090909090907" x2="45.4375" y2="454.5454545454545"/>
<line x1="45.4375" y1="454.5454545454545" x2="45.4375" y2="500.0"/>
<line x1="0.0" y1="545.4545454545455" x2="45.4375" y2="545.4545454545455"/>
<line x1="45.4375" y1="500.0" x2="45.4375" y2="545.4545454545455"/>
<line x1="45.4375" y1="590.9090909090909" x2="45.4375" y2="636.3636363636364"/>
<line x1="45.4375" y1="636.3636363636364" x2="45.4375" y2="681.8181818181818"/>
<line x1="0.0" y1="772.7272727272727" x2="45.4375" y2="772.7272727272727"/>
<line x1="0.0" y1="863.6363636363636" x2="45.4375" y2="863.6363636363636"/>
<line x1="45.4375" y1="909.090909090909" x2="45.4375" y2="954.5454545454545"/>
<line x1="0.0" y1="1000.0" x2="45.4375" y2="1000.0"/>
<line x1="90.875" y1="0.0" x2="90.875" y2="45.45454545454545"/>
<line x1="45.4375" y1="90.9090909090909" x2="90.875" y2="90.9090909090909"/>
<line x1="90.875" y1="136.36363636363637" x2="90.875" y2="181.8181818181818"/>
<line x1="45.4375" y1="227.27272727272725" x2="90.875" y2="227.27272727272725"/>
<line x1="90.875" y1="181.8181818181818" x2="90.875" y2="227.27272727272725"/>
<line x1="45.4375" y1="272.72727272727275" x2="90.875" y2="272.72727272727275"/>
<line x1="90.875" y1="318.1818181818182" x2="90.875" y2="363.6363636363636"/>
<line x1="90.875" y1="363.6363636363636" x2="90.875" y2="409.09090909090907"/>
<line x1="90.875" y1="409.09090909090907" x2="90.875" y2="454.5454545454545"/>
<line x1="90.875" y1="454.5454545454545" x2="90.875" y2="500.0"/>
<line x1="90.875" y1="500.0" x2="90.875" y2="545.4545454545455"/>
<line x1="45.4375" y1="590.9090909090909" x2="90.875" y2="590.9090909090909"/>
<line x1="90.875" y1="545.4545454545455" x2="90.875" y2="590.9090909090909"/>
<line x1="45.4375" y1="636.3636363636364" x2="90.875" y2="636.3636363636364"/>
<line x1="45.4375" y1="727.2727272727273" x2="90.875" y2="727.2727272727273"/>
<line x1="90.875" y1="681.8181818181818" x2="90.875" y2="727.2727272727273"/>
<line x1="90.875" y1="727.2727272727273" x2="90.875" y2="772.7272727272727"/>
<line x1="45.4375" y1="818.1818181818181" x2="90.875" y2="818.1818181818181"/>
<line x1="90.875" y1="772.7272727272727" x2="90.875" y2="818.1818181818181"/>
<line x1="90.875" y1="818.1818181818181" x2="90.875" y2="863.6363636363636"/>
<line x1="45.4375" y1="909.090909090909" x2="90.875" y2="909.090909090909"/>
<line x1="90.875" y1="863.6363636363636" x2="90.875" y2="909.090909090909"/>
<line x1="45.4375" y1="1000.0" x2="90.875" y2="1000.0"/>
<line x1="90.875" y1="954.5454545454545" x2="90.875" y2="1000.0"/>
<line x1="90.875" y1="90.9090909090909" x2="136.3125" y2="90.9090909090909"/>
<line x1="136.3125" y1="45.45454545454545" x2="136.3125" y2="90.9090909090909"/>
<line x1="90.875" y1="181.8181818181818" x2="136.3125" y2="181.8181818181818"/>
<line x1="90.875" y1="227.27272727272725" x2="136.3125" y2="227.27272727272725"/>
<line x1="90.875" y1="272.72727272727275" x2="136.3125" y2="272.72727272727275"/>
<line x1="136.3125" y1="272.72727272727275" x2="136.3125" y2="318.1818181818182"/>
<line x1="90.875" y1="363.6363636363636" x2="136.3125" y2="363.6363636363636"/>
<line x1="136.3125" y1="363.6363636363636" x2="136.3125" y2="409.09090909090907"/>
<line x1="136.3125" y1="409.09090909090907" x2="136.3125" y2="454.5454545454545"/>
<line x1="90.875" y1="545.4545454545455" x2="136.3125" y2="545.4545454545455"/>
<line x1="136.3125" y1="545.4545454545455" x2="136.3125" y2="590.9090909090909"/>
<line x1="90.875" y1="636.3636363636364" x2="136.3125" y2="636.3636363636364"/>
<line x1="136.3125" y1="636.3636363636364" x2="136.3125" y2="681.8181818181818"/>
<line x1="136.3125" y1="681.8181818181818" x2="136.3125" y2="727.2727272727273"/>
<line x1="136.3125" y1="727.2727272727273" x2="136.3125" y2="772.7272727272727"/>
<line x1="90.875" y1="863.6363636363636" x2="136.3125" y2="863.6363636363636"/>
<line x1="90.875" y1="909.090909090909" x2="136.3125" y2="909.090909090909"/>
<line x1="136.3125" y1="909.090909090909" x2="136.3125" y2="954.5454545454545"/>
<line x1="90.875" y1="1000.0" x2="136.3125" y2="1000.0"/>
<line x1="136.3125" y1="45.45454545454545" x2="181.75" y2="45.45454545454545"/>
<line x1="136.3125" y1="136.36363636363637" x2="181.75" y2="136.36363636363637"/>
<line x1="181.75" y1="90.9090909090909" x2="181.75" y2="136.36363636363637"/>
<line x1="136.3125" y1="181.8181818181818" x2="181.75" y2="181.8181818181818"/>
<line x1="181.75" y1="181.8181818181818" x2="181.75" y2="227.27272727272725"/>
<line x1="136.3125" y1="272.72727272727275" x2="181.75" y2="272.72727272727275"/>
<line x1="181.75" y1="227.27272727272725" x2="181.75" y2="272.72727272727275"/>
<line x1="181.75" y1="318.1818181818182" x2="181.75" y2="363.6363636363636"/>
<line x1="181.75" y1="363.6363636363636" x2="181.75" y2="409.09090909090907"/>
<line x1="136.3125" y1="500.0" x2="181.75" y2="500.0"/>
<line x1="181.75" y1="454.5454545454545" x2="181.75" y2="500.0"/>
<line x1="181.75" y1="500.0" x2="181.75" y2="545.4545454545455"/>
<line x1="181.75" y1="545.4545454545455" x2="181.75" y2="590.9090909090909"/>
<line x1="136.3125" y1="636.3636363636364" x2="181.75" y2="636.3636363636364"/>
<line x1="181.75" y1="590.9090909090909" x2="181.75" y2="636.3636363636364"/>
<line x1="181.75" y1="681.8181818181818" x2="181.75" y2="727.2727272727273"/>
<line x1="136.3125" y1="772.7272727272727" x2="181.75" y2="772.7272727272727"/>
<line x1="136.3125" y1="818.1818181818181" x2="181.75" y2="818.1818181818181"/>
<line x1="136.3125" y1="863.6363636363636" x2="181.75" y2="863.6363636363636"/>
<line x1="136.3125" y1="954.5454545454545" x2="181.75" y2="954.5454545454545"/>
<line x1="181.75" y1="909.090909090909" x2="181.75" y2="954.5454545454545"/>
<line x1="136.3125" y1="1000.0" x2="181.75" y2="1000.0"/>
<line x1="181.75" y1="45.45454545454545" x2="227.1875" y2="45.45454545454545"/>
<line x1="181.75" y1="90.9090909090909" x2="227.1875" y2="90.9090909090909"/>
<line x1="181.75" y1="181.8181818181818" x2="227.1875" y2="181.8181818181818"/>
<line x1="227.1875" y1="136.36363636363637" x2="227.1875" y2="181.8181818181818"/>
<line x1="227.1875" y1="227.27272727272725" x2="227.1875" y2="272.72727272727275"/>
<line x1="181.75" y1="318.1818181818182" x2="227.1875" y2="318.1818181818182"/>
<line x1="227.1875" y1="272.72727272727275" x2="227.1875" y2="318.1818181818182"/>
<line x1="181.75" y1="409.09090909090907" x2="227.1875" y2="409.09090909090907"/>
<line x1="181.75" y1="454.5454545454545" x2="227.1875" y2="454.5454545454545"/>
<line x1="227.1875" y1="500.0" x2="227.1875" y2="545.4545454545455"/>
<line x1="227.1875" y1="545.4545454545455" x2="227.1875" y2="590.9090909090909"/>
<line x1="227.1875" y1="590.9090909090909" x2="227.1875" y2="636.3636363636364"/>
<line x1="181.75" y1="681.8181818181818" x2="227.1875" y2="681.8181818181818"/>
<line x1="227.1875" y1="636.3636363636364" x2="227.1875" y2="681.8181818181818"/>
<line x1="181.75" y1="772.7272727272727" x2="227.1875" y2="772.7272727272727"/>
<line x1="227.1875" y1="727.2727272727273" x2="227.1875" y2="772.7272727272727"/>
<line x1="181.75" y1="818.1818181818181" x2="227.1875" y2="818.1818181818181"/>
<line x1="227.1875" y1="772.7272727272727" x2="227.1875" y2="818.1818181818181"/>
<line x1="181.75" y1="863.6363636363636" x2="227.1875" y2="863.6363636363636"/>
<line x1="227.1875" y1="863.6363636363636" x2="227.1875" y2="909.090909090909"/>
<line x1="227.1875" y1="909.090909090909" x2="227.1875" y2="954.5454545454545"/>
<line x1="181.75" y1="1000.0" x2="227.1875" y2="1000.0"/>
<line x1="227.1875" y1="45.45454545454545" x2="272.625" y2="45.45454545454545"/>
<line x1="227.1875" y1="90.9090909090909" x2="272.625" y2="90.9090909090909"/>
<line x1="272.625" y1="45.45454545454545" x2="272.625" y2="90.9090909090909"/>
<line x1="272.625" y1="90.9090909090909" x2="272.625" y2="136.36363636363637"/>
<line x1="272.625" y1="136.36363636363637" x2="272.625" y2="181.8181818181818"/>
<line x1="227.1875" y1="227.27272727272725" x2="272.625" y2="227.27272727272725"/>
<line x1="227.1875" y1="318.1818181818182" x2="272.625" y2="318.1818181818182"/>
<line x1="227.1875" y1="363.6363636363636" x2="272.625" y2="363.6363636363636"/>
<line x1="227.1875" y1="409.09090909090907" x2="272.625" y2="409.09090909090907"/>
<line x1="227.1875" y1="454.5454545454545" x2="272.625" y2="454.5454545454545"/>
<line x1="272.625" y1="409.09090909090907" x2="272.625" y2="454.5454545454545"/>
<line x1="272.625" y1="500.0" x2="272.625" y2="545.4545454545455"/>
<line x1="272.625" y1="545.4545454545455" x2="272.625" y2="590.9090909090909"/>
<line x1="227.1875" y1="636.3636363636364" x2="272.625" y2="636.3636363636364"/>
<line x1="227.1875" y1="727.2727272727273" x2="272.625" y2="727.2727272727273"/>
<line x1="272.625" y1="681.8181818181818" x2="272.625" y2="727.2727272727273"/>
<line x1="227.1875" y1="863.6363636363636" x2="272.625" y2="863.6363636363636"/>
<line x1="272.625" y1="818.1818181818181" x2="272.625" y2="863.6363636363636"/>
<line x1="227.1875" y1="954.5454545454545" x2="272.625" y2="954.5454545454545"/>
<line x1="227.1875" y1="1000.0" x2="272.625" y2="1000.0"/>
<line x1="272.625" y1="954.5454545454545" x2="272.625" y2="1000.0"/>
<line x1="318.0625" y1="0.0" x2="318.0625" y2="45.45454545454545"/>
<line x1="272.625" y1="90.9090909090909" x2="318.0625" y2="90.9090909090909"/>
<line x1="272.625" y1="181.8181818181818" x2="318.0625" y2="181.8181818181818"/>
<line x1="318.0625" y1="181.8181818181818" x2="318.0625" y2="227.27272727272725"/>
<line x1="272.625" y1="272.72727272727275" x2="318.0625" y2="272.72727272727275"/>
<line x1="318.0625" y1="227.27272727272725" x2="318.0625" y2="272.72727272727275"/>
<line x1="272.625" y1="318.1818181818182" x2="318.0625" y2="318.1818181818182"/>
<line x1="318.0625" y1="272.72727272727275" x2="318.0625" y2="318.1818181818182"/>
<line x1="272.625" y1="363.6363636363636" x2="318.0625" y2="363.6363636363636"/>
<line x1="318.0625" y1="363.6363636363636" x2="318.0625" y2="409.09090909090907"/>
<line x1="272.625" y1="454.5454545454545" x2="318.0625" y2="454.5454545454545"/>
<line x1="318.0625" y1="454.5454545454545" x2="318.0625" y2="500.0"/>
<line x1="272.625" y1="545.4545454545455" x2="318.0625" y2="545.4545454545455"/>
<line x1="318.0625" y1="500.0" x2="318.0625" y2="545.4545454545455"/>
<line x1="272.625" y1="636.3636363636364" x2="318.0625" y2="636.3636363636364"/>
<line x1="318.0625" y1="590.9090909090909" x2="318.0625" y2="636.3636363636364"/>
<line x1="272.625" y1="681.8181818181818" x2="318.0625" y2="681.8181818181818"/>
<line x1="318.0625" y1="681.8181818181818" x2="318.0625" y2="727.2727272727273"/>
<line x1="272.625" y1="772.7272727272727" x2="318.0625" y2="772.7272727272727"/>
<line x1="318.0625" y1="727.2727272727273" x2="318.0625" y2="772.7272727272727"/>
<line x1="272.625" y1="818.1818181818181" x2="318.0625" y2="818.1818181818181"/>
<line x1="272.625" y1="909.090909090909" x2="318.0625" y2="909.090909090909"/>
<line x1="318.0625" y1="863.6363636363636" x2="318.0625" y2="909.090909090909"/>
<line x1="318.0625" y1="909.090909090909" x2="318.0625" y2="954.5454545454545"/>
<line x1="272.625" y1="1000.0" x2="318.0625" y2="1000.0"/>
<line x1="318.0625" y1="90.9090909090909" x2="363.5" y2="90.9090909090909"/>
<line x1="363.5" y1="45.45454545454545" x2="363.5" y2="90.9090909090909"/>
<line x1="318.0625" y1="136.36363636363637" x2="363.5" y2="136.36363636363637"/>
<line x1="363.5" y1="136.36363636363637" x2="363.5" y2="181.8181818181818"/>
<line x1="363.5" y1="181.8181818181818" x2="363.5" y2="227.27272727272725"/>
<line x1="363.5" y1="227.27272727272725" x2="363.5" y2="272.72727272727275"/>
<line x1="363.5" y1="272.72727272727275" x2="363.5" y2="318.1818181818182"/>
<line x1="318.0625" y1="363.6363636363636" x2="363.5" y2="363.6363636363636"/>
<line x1="363.5" y1="318.1818181818182" x2="363.5" y2="363.6363636363636"/>
<line x1="318.0625" y1="409.09090909090907" x2="363.5" y2="409.09090909090907"/>
<line x1="363.5" y1="409.09090909090907" x2="363.5" y2="454.5454545454545"/>
<line x1="363.5" y1="454.5454545454545" x2="363.5" y2="500.0"/>
<line x1="318.0625" y1="545.4545454545455" x2="363.5" y2="545.4545454545455"/>
<line x1="318.0625" y1="590.9090909090909" x2="363.5" y2="590.9090909090909"/>
<line x1="318.0625" y1="681.8181818181818" x2="363.5" y2="681.8181818181818"/>
<line x1="363.5" y1="636.3636363636364" x2="363.5" y2="681.8181818181818"/>
<line x1="318.0625" y1="772.7272727272727" x2="363.5" y2="772.7272727272727"/>
<line x1="318.0625" y1="818.1818181818181" x2="363.5" y2="818.1818181818181"/>
<line x1="318.0625" y1="863.6363636363636" x2="363.5" y2="863.6363636363636"/>
<line x1="318.0625" y1="954.5454545454545" x2="363.5" y2="954.5454545454545"/>
<line x1="318.0625" y1="1000.0" x2="363.5" y2="1000.0"/>
<line x1="408.9375" y1="0.0" x2="408.9375" y2="45.45454545454545"/>
<line x1="363.5" y1="90.9090909090909" x2="408.9375" y2="90.9090909090909"/>
<line x1="363.5" y1="136.36363636363637" x2="408.9375" y2="136.36363636363637"/>
<line x1="408.9375" y1="181.8181818181818" x2="408.9375" y2="227.27272727272725"/>
<line x1="408.9375" y1="227.27272727272725" x2="408.9375" y2="272.72727272727275"/>
<line x1="408.9375" y1="318.1818181818182" x2="408.9375" y2="363.6363636363636"/>
<line x1="363.5" y1="409.09090909090907" x2="408.9375" y2="409.09090909090907"/>
<line x1="363.5" y1="500.0" x2="408.9375" y2="500.0"/>
<line x1="408.9375" y1="454.5454545454545" x2="408.9375" y2="500.0"/>
<line x1="363.5" y1="545.4545454545455" x2="408.9375" y2="545.4545454545455"/>
<line x1="363.5" y1="590.9090909090909" x2="408.9375" y2="590.9090909090909"/>
<line x1="408.9375" y1="590.9090909090909" x2="408.9375" y2="636.3636363636364"/>
<line x1="408.9375" y1="636.3636363636364" x2="408.9375" y2="681.8181818181818"/>
<line x1="363.5" y1="727.2727272727273" x2="408.9375" y2="727.2727272727273"/>
<line x1="408.9375" y1="681.8181818181818" x2="408.9375" y2="727.2727272727273"/>
<line x1="408.9375" y1="727.2727272727273" x2="408.9375" y2="772.7272727272727"/>
<line x1="363.5" y1="818.1818181818181" x2="408.9375" y2="818.1818181818181"/>
<line x1="408.9375" y1="772.7272727272727" x2="408.9375" y2="818.1818181818181"/>
<line x1="363.5" y1="863.6363636363636" x2="408.9375" y2="863.6363636363636"/>
<line x1="363.5" y1="909.090909090909" x2="408.9375" y2="909.090909090909"/>
<line x1="408.9375" y1="909.090909090909" x2="408.9375" y2="954.5454545454545"/>
<line x1="363.5" y1="1000.0" x2="408.9375" y2="1000.0"/>
<line x1="408.9375" y1="45.45454545454545" x2="454.375" y2="45.45454545454545"/>
<line x1="408.9375" y1="90.9090909090909" x2="454.375" y2="90.9090909090909"/>
<line x1="408.9375" y1="136.36363636363637" x2="454.375" y2="136.36363636363637"/>
<line x1="408.9375" y1="181.8181818181818" x2="454.375" y2="181.8181818181818"/>
<line x1="408.9375" y1="272.72727272727275" x2="454.375" y2="272.72727272727275"/>
<line x1="408.9375" y1="318.1818181818182" x2="454.375" y2="318.1818181818182"/>
<line x1="408.9375" y1="363.6363636363636" x2="454.375" y2="363.6363636363636"/>
<line x1="454.375" y1="363.6363636363636" x2="454.375" y2="409.09090909090907"/>
<line x1="408.9375" y1="454.5454545454545" x2="454.375" y2="454.5454545454545"/>
<line x1="408.9375" y1="545.4545454545455" x2="454.375" y2="545.4545454545455"/>
<line x1="454.375" y1="500.0" x2="454.375" y2="545.4545454545455"/>
<line x1="454.375" y1="590.9090909090909" x2="454.375" y2="636.3636363636364"/>
<line x1="408.9375" y1="681.8181818181818" x2="454.375" y2="681.8181818181818"/>
<line x1="454.375" y1="727.2727272727273" x2="454.375" y2="772.7272727272727"/>
<line x1="408.9375" y1="818.1818181818181" x2="454.375" y2="818.1818181818181"/>
<line x1="408.9375" y1="863.6363636363636" x2="454.375" y2="863.6363636363636"/>
<line x1="454.375" y1="863.6363636363636" x2="454.375" y2="909.090909090909"/>
<line x1="408.9375" y1="954.5454545454545" x2="454.375" y2="954.5454545454545"/>
<line x1="408.9375" y1="1000.0" x2="454.375" y2="1000.0"/>
<line x1="454.375" y1="954.5454545454545" x2="454.375" y2="1000.0"/>
<line x1="454.375" y1="45.45454545454545" x2="499.8125" y2="45.45454545454545"/>
<line x1="454.375" y1="90.9090909090909" x2="499.8125" y2="90.9090909090909"/>
<line x1="454.375" y1="136.36363636363637" x2="499.8125" y2="136.36363636363637"/>
<line x1="499.8125" y1="136.36363636363637" x2="499.8125" y2="181.8181818181818"/>
<line x1="454.375" y1="227.27272727272725" x2="499.8125" y2="227.27272727272725"/>
<line x1="499.8125" y1="181.8181818181818" x2="499.8125" y2="227.27272727272725"/>
<line x1="454.375" y1="272.72727272727275" x2="499.8125" y2="272.72727272727275"/>
<line x1="454.375" y1="318.1818181818182" x2="499.8125" y2="318.1818181818182"/>
<line x1="499.8125" y1="318.1818181818182" x2="499.8125" y2="363.6363636363636"/>
<line x1="499.8125" y1="363.6363636363636" x2="499.8125" y2="409.09090909090907"/>
<line x1="454.375" y1="454.5454545454545" x2="499.8125" y2="454.5454545454545"/>
<line x1="499.8125" y1="409.09090909090907" x2="499.8125" y2="454.5454545454545"/>
<line x1="454.375" y1="500.0" x2="499.8125" y2="500.0"/>
<line x1="454.375" y1="590.9090909090909" x2="499.8125" y2="590.9090909090909"/>
<line x1="499.8125" y1="545.4545454545455" x2="499.8125" y2="590.9090909090909"/>
<line x1="454.375" y1="636.3636363636364" x2="499.8125" y2="636.3636363636364"/>
<line x1="454.375" y1="681.8181818181818" x2="499.8125" y2="681.8181818181818"/>
<line x1="454.375" y1="727.2727272727273" x2="499.8125" y2="727.2727272727273"/>
<line x1="454.375" y1="772.7272727272727" x2="499.8125" y2="772.7272727272727"/>
<line x1="454.375" y1="818.1818181818181" x2="499.8125" y2="818.1818181818181"/>
<line x1="454.375" y1="863.6363636363636" x2="499.8125" y2="863.6363636363636"/>
<line x1="454.375" y1="909.090909090909" x2="499.8125" y2="909.090909090909"/>
<line x1="499.8125" y1="909.090909090909" x2="499.8125" y2="954.5454545454545"/>
<line x1="454.375" y1="1000.0" x2="499.8125" y2="1000.0"/>
<line x1="499.8125" y1="45.45454545454545" x2="545.25" y2="45.45454545454545"/>
<line x1="499.8125" y1="90.9090909090909" x2="545.25" y2="90.9090909090909"/>
<line x1="499.8125" y1="136.36363636363637" x2="545.25" y2="136.36363636363637"/>
<line x1="499.8125" y1="227.27272727272725" x2="545.25" y2="227.27272727272725"/>
<line x1="499.8125" y1="272.72727272727275" x2="545.25" y2="272.72727272727275"/>
<line x1="545.25" y1="227.27272727272725" x2="545.25" y2="272.72727272727275"/>
<line x1="545.25" y1="272.72727272727275" x2="545.25" y2="318.1818181818182"/>
<line x1="499.8125" y1="363.6363636363636" x2="545.25" y2="363.6363636363636"/>
<line x1="545.25" y1="409.09090909090907" x2="545.25" y2="454.5454545454545"/>
<line x1="499.8125" y1="500.0" x2="545.25" y2="500.0"/>
<line x1="545.25" y1="454.5454545454545" x2="545.25" y2="500.0"/>
<line x1="545.25" y1="500.0" x2="545.25" y2="545.4545454545455"/>
<line x1="545.25" y1="545.4545454545455" x2="545.25" y2="590.9090909090909"/>
<line x1="499.8125" y1="636.3636363636364" x2="545.25" y2="636.3636363636364"/>
<line x1="499.8125" y1="681.8181818181818" x2="545.25" y2="681.8181818181818"/>
<line x1="545.25" y1="681.8181818181818" x2="545.25" y2="727.2727272727273"/>
<line x1="499.8125" y1="772.7272727272727" x2="545.25" y2="772.7272727272727"/>
<line x1="545.25" y1="772.7272727272727" x2="545.25" y2="818.1818181818181"/>
<line x1="499.8125" y1="863.6363636363636" x2="545.25" y2="863.6363636363636"/>
<line x1="545.25" y1="818.1818181818181" x2="545.25" y2="863.6363636363636"/>
<line x1="499.8125" y1="909.090909090909" x2="545.25" y2="909.090909090909"/>
<line x1="499.8125" y1="1000.0" x2="545.25" y2="1000.0"/>
<line x1="545.25" y1="954.5454545454545" x2="545.25" y2="1000.0"/>
<line x1="545.25" y1="90.9090909090909" x2="590.6875" y2="90.9090909090909"/>
<line x1="590.6875" y1="45.45454545454545" x2="590.6875" y2="90.9090909090909"/>
<line x1="545.25" y1="181.8181818181818" x2="590.6875" y2="181.8181818181818"/>
<line x1="590.6875" y1="136.36363636363637" x2="590.6875" y2="181.8181818181818"/>
<line x1="590.6875" y1="181.8181818181818" x2="590.6875" y2="227.27272727272725"/>
<line x1="590.6875" y1="227.27272727272725" x2="590.6875" y2="272.72727272727275"/>
<line x1="545.25" y1="318.1818181818182" x2="590.6875" y2="318.1818181818182"/>
<line x1="545.25" y1="363.6363636363636" x2="590.6875" y2="363.6363636363636"/>
<line x1="590.6875" y1="363.6363636363636" x2="590.6875" y2="409.09090909090907"/>
<line x1="590.6875" y1="409.09090909090907" x2="590.6875" y2="454.5454545454545"/>
<line x1="590.6875" y1="454.5454545454545" x2="590.6875" y2="500.0"/>
<line x1="590.6875" y1="500.0" x2="590.6875" y2="545.4545454545455"/>
<line x1="545.25" y1="590.9090909090909" x2="590.6875" y2="590.9090909090909"/>
<line x1="545.25" y1="636.3636363636364" x2="590.6875" y2="636.3636363636364"/>
<line x1="590.6875" y1="590.9090909090909" x2="590.6875" y2="636.3636363636364"/>
<line x1="545.25" y1="727.2727272727273" x2="590.6875" y2="727.2727272727273"/>
<line x1="545.25" y1="772.7272727272727" x2="590.6875" y2="772.7272727272727"/>
<line x1="590.6875" y1="772.7272727272727" x2="590.6875" y2="818.1818181818181"/>
<line x1="545.25" y1="909.090909090909" x2="590.6875" y2="909.090909090909"/>
<line x1="590.6875" y1="909.090909090909" x2="590.6875" y2="954.5454545454545"/>
<line x1="545.25" y1="1000.0" x2="590.6875" y2="1000.0"/>
<line x1="636.125" y1="0.0" x2="636.125" y2="45.45454545454545"/>
<line x1="590.6875" y1="90.9090909090909" x2="636.125" y2="90.9090909090909"/>
<line x1="590.6875" y1="136.36363636363637" x2="636.125" y2="136.36363636363637"/>
<line x1="636.125" y1="90.9090909090909" x2="636.125" y2="136.36363636363637"/>
<line x1="636.125" y1="181.8181818181818" x2="636.125" y2="227.27272727272725"/>
<line x1="590.6875" y1="272.72727272727275" x2="636.125" y2="272.72727272727275"/>
<line x1="590.6875" y1="318.1818181818182" x2="636.125" y2="318.1818181818182"/>
<line x1="590.6875" y1="409.09090909090907" x2="636.125" y2="409.09090909090907"/>
<line x1="590.6875" y1="545.4545454545455" x2="636.125" y2="545.4545454545455"/>
<line x1="636.125" y1="500.0" x2="636.125" y2="545.4545454545455"/>
<line x1="636.125" y1="545.4545454545455" x2="636.125" y2="590.9090909090909"/>
<line x1="590.6875" y1="636.3636363636364" x2="636.125" y2="636.3636363636364"/>
<line x1="590.6875" y1="681.8181818181818" x2="636.125" y2="681.8181818181818"/>
<line x1="636.125" y1="636.3636363636364" x2="636.125" y2="681.8181818181818"/>
<line x1="636.125" y1="727.2727272727273" x2="636.125" y2="772.7272727272727"/>
<line x1="636.125" y1="772.7272727272727" x2="636.125" y2="818.1818181818181"/>
<line x1="590.6875" y1="863.6363636363636" x2="636.125" y2="863.6363636363636"/>
<line x1="636.125" y1="818.1818181818181" x2="636.125" y2="863.6363636363636"/>
<line x1="590.6875" y1="954.5454545454545" x2="636.125" y2="954.5454545454545"/>
<line x1="636.125" y1="909.090909090909" x2="636.125" y2="954.5454545454545"/>
<line x1="590.6875" y1="1000.0" x2="636.125" y2="1000.0"/>
<line x1="636.125" y1="45.45454545454545" x2="681.5625" y2="45.45454545454545"/>
<line x1="681.5625" y1="45.45454545454545" x2="681.5625" y2="90.9090909090909"/>
<line x1="681.5625" y1="90.9090909090909" x2="681.5625" y2="136.36363636363637"/>
<line x1="636.125" y1="181.8181818181818" x2="681.5625" y2="181.8181818181818"/>
<line x1="681.5625" y1="136.36363636363637" x2="681.5625" y2="181.8181818181818"/>
<line x1="636.125" y1="272.72727272727275" x2="681.5625" y2="272.72727272727275"/>
<line x1="681.5625" y1="227.27272727272725" x2="681.5625" y2="272.72727272727275"/>
<line x1="636.125" y1="318.1818181818182" x2="681.5625" y2="318.1818181818182"/>
<line x1="636.125" y1="363.6363636363636" x2="681.5625" y2="363.6363636363636"/>
<line x1="681.5625" y1="363.6363636363636" x2="681.5625" y2="409.09090909090907"/>
<line x1="636.125" y1="454.5454545454545" x2="681.5625" y2="454.5454545454545"/>
<line x1="681.5625" y1="409.09090909090907" x2="681.5625" y2="454.5454545454545"/>
<line x1="636.125" y1="500.0" x2="681.5625" y2="500.0"/>
<line x1="681.5625" y1="454.5454545454545" x2="681.5625" y2="500.0"/>
<line x1="636.125" y1="590.9090909090909" x2="681.5625" y2="590.9090909090909"/>
<line x1="681.5625" y1="590.9090909090909" x2="681.5625" y2="636.3636363636364"/>
<line x1="636.125" y1="681.8181818181818" x2="681.5625" y2="681.8181818181818"/>
<line x1="636.125" y1="727.2727272727273" x2="681.5625" y2="727.2727272727273"/>
<line x1="681.5625" y1="681.8181818181818" x2="681.5625" y2="727.2727272727273"/>
<line x1="636.125" y1="818.1818181818181" x2="681.5625" y2="818.1818181818181"/>
<line x1="681.5625" y1="818.1818181818181" x2="681.5625" y2="863.6363636363636"/>
<line x1="636.125" y1="909.090909090909" x2="681.5625" y2="909.090909090909"/>
<line x1="681.5625" y1="863.6363636363636" x2="681.5625" y2="909.090909090909"/>
<line x1="636.125" y1="1000.0" x2="681.5625" y2="1000.0"/>
<line x1="727.0" y1="0.0" x2="727.0" y2="45.45454545454545"/>
<line x1="727.0" y1="45.45454545454545" x2="727.0" y2="90.9090909090909"/>
<line x1="727.0" y1="90.9090909090909" x2="727.0" y2="136.36363636363637"/>
<line x1="727.0" y1="136.36363636363637" x2="727.0" y2="181.8181818181818"/>
<line x1="727.0" y1="181.8181818181818" x2="727.0" y2="227.27272727272725"/>
<line x1="727.0" y1="227.27272727272725" x2="727.0" y2="272.72727272727275"/>
<line x1="681.5625" y1="318.1818181818182" x2="727.0" y2="318.1818181818182"/>
<line x1="727.0" y1="272.72727272727275" x2="727.0" y2="318.1818181818182"/>
<line x1="727.0" y1="318.1818181818182" x2="727.0" y2="363.6363636363636"/>
<line x1="727.0" y1="363.6363636363636" x2="727.0" y2="409.09090909090907"/>
<line x1="727.0" y1="409.09090909090907" x2="727.0" y2="454.5454545454545"/>
<line x1="727.0" y1="454.5454545454545" x2="727.0" y2="500.0"/>
<line x1="681.5625" y1="545.4545454545455" x2="727.0" y2="545.4545454545455"/>
<line x1="727.0" y1="500.0" x2="727.0" y2="545.4545454545455"/>
<line x1="727.0" y1="545.4545454545455" x2="727.0" y2="590.9090909090909"/>
<line x1="727.0" y1="590.9090909090909" x2="727.0" y2="636.3636363636364"/>
<line x1="727.0" y1="636.3636363636364" x2="727.0" y2="681.8181818181818"/>
<line x1="727.0" y1="681.8181818181818" x2="727.0" y2="727.2727272727273"/>
<line x1="681.5625" y1="772.7272727272727" x2="727.0" y2="772.7272727272727"/>
<line x1="727.0" y1="727.2727272727273" x2="727.0" y2="772.7272727272727"/>
<line x1="727.0" y1="772.7272727272727" x2="727.0" y2="818.1818181818181"/>
<line x1="727.0" y1="818.1818181818181" x2="727.0" y2="863.6363636363636"/>
<line x1="727.0" y1="863.6363636363636" x2="727.0" y2="909.090909090909"/>
<line x1="681.5625" y1="954.5454545454545" x2="727.0" y2="954.5454545454545"/>
<line x1="727.0" y1="909.090909090909" x2="727.0" y2="954.5454545454545"/>
<line x1="681.5625" y1="1000.0" x2="727.0" y2="1000.0"/>
<line x1="727.0" y1="954.5454545454545" x2="727.0" y2="1000.0"/>
<line x1="22.71875" y1="22.727272727272727" x2="68.15625" y2="22.727272727272727" style="stroke:#7d8059;" />
<line x1="68.15625" y1="22.727272727272727" x2="68.15625" y2="68.18181818181819" style="stroke:#7d8059;" />
<line x1="68.15625" y1="68.18181818181819" x2="113.59375" y2="68.18181818181819" style="stroke:#7d8059;" />
<line x1="113.59375" y1="68.18181818181819" x2="113.59375" y2="22.727272727272727" style="stroke:#7d8059;" />
<line x1="113.59375" y1="22.727272727272727" x2="159.03125" y2="22.727272727272727" style="stroke:#7d8059;" />
<line x1="159.03125" y1="22.727272727272727" x2="204.46875" y2="22.727272727272727" style="stroke:#7d8059;" />
<line x1="204.46875" y1="22.727272727272727" x2="249.90625" y2="22.727272727272727" style="stroke:#7d8059;" />
<line x1="249.90625" y1="22.727272727272727" x2="295.34375" y2="22.727272727272727" style="stroke:#7d8059;" />
<line x1="295.34375" y1="22.727272727272727" x2="295.34375" y2="68.18181818181819" style="stroke:#7d8059;" />
<line x1="295.34375" y1="68.18181818181819" x2="340.78125" y2="68.18181818181819" style="stroke:#7d8059;" />
<line x1="340.78125" y1="68.18181818181819" x2="340.78125" y2="22.727272727272727" style="stroke:#7d8059;" />
<line x1="340.78125" y1="22.727272727272727" x2="386.21875" y2="22.727272727272727" style="stroke:#7d8059;" />
<line x1="386.21875" y1="22.727272727272727" x2="386.21875" y2="68.18181818181819" style="stroke:#7d8059;" />
<line x1="386.21875" y1="68.18181818181819" x2="431.65625" y2="68.18181818181819" style="stroke:#7d8059;" />
<line x1="431.65625" y1="68.18181818181819" x2="477.09375" y2="68.18181818181819" style="stroke:#7d8059;" />
<line x1="477.09375" y1="68.18181818181819" x2="522.53125" y2="68.18181818181819" style="stroke:#7d8059;" />
<line x1="522.53125" y1="68.18181818181819" x2="567.96875" y2="68.18181818181819" style="stroke:#7d8059;" />
<line x1="567.96875" y1="68.18181818181819" x2="567.96875" y2="22.727272727272727" style="stroke:#7d8059;" />
<line x1="567.96875" y1="22.727272727272727" x2="613.40625" y2="22.727272727272727" style="stroke:#7d8059;" />
<line x1="613.40625" y1="22.727272727272727" x2="613.40625" y2="68.18181818181819" style="stroke:#7d8059;" />
<line x1="613.40625" y1="68.18181818181819" x2="658.84375" y2="68.18181818181819" style="stroke:#7d8059;" />
<line x1="658.84375" y1="68.18181818181819" x2="658.84375" y2="113.63636363636363" style="stroke:#7d8059;" />
<line x1="658.84375" y1="113.63636363636363" x2="658.84375" y2="159.0909090909091" style="stroke:#7d8059;" />
<line x1="658.84375" y1="159.0909090909091" x2="613.40625" y2="159.0909090909091" style="stroke:#7d8059;" />
<line x1="613.40625" y1="159.0909090909091" x2="613.40625" y2="204.54545454545453" style="stroke:#7d8059;" />
<line x1="613.40625" y1="204.54545454545453" x2="613.40625" y2="250.0" style="stroke:#7d8059;" />
<line x1="613.40625" y1="250.0" x2="658.84375" y2="250.0" style="stroke:#7d8059;" />
<line x1="658.84375" y1="250.0" x2="658.84375" y2="204.54545454545453" style="stroke:#7d8059;" />
<line x1="658.84375" y1="204.54545454545453" x2="704.28125" y2="204.54545454545453" style="stroke:#7d8059;" />
<line x1="704.28125" y1="204.54545454545453" x2="704.28125" y2="250.0" style="stroke:#7d8059;" />
<line x1="704.28125" y1="250.0" x2="704.28125" y2="295.45454545454544" style="stroke:#7d8059;" />
<line x1="704.28125" y1="295.45454545454544" x2="658.84375" y2="295.45454545454544" style="stroke:#7d8059;" />
<line x1="658.84375" y1="295.45454545454544" x2="613.40625" y2="295.45454545454544" style="stroke:#7d8059;" />
<line x1="613.40625" y1="295.45454545454544" x2="567.96875" y2="295.45454545454544" style="stroke:#7d8059;" />
<line x1="567.96875" y1="295.45454545454544" x2="567.96875" y2="250.0" style="stroke:#7d8059;" />
<line x1="567.96875" y1="250.0" x2="567.96875" y2="204.54545454545453" style="stroke:#7d8059;" />
<line x1="567.96875" y1="204.54545454545453" x2="522.53125" y2="204.54545454545453" style="stroke:#7d8059;" />
<line x1="522.53125" y1="204.54545454545453" x2="522.53125" y2="159.0909090909091" style="stroke:#7d8059;" />
<line x1="522.53125" y1="159.0909090909091" x2="567.96875" y2="159.0909090909091" style="stroke:#7d8059;" />
<line x1="567.96875" y1="159.0909090909091" x2="567.96875" y2="113.63636363636363" style="stroke:#7d8059;" />
<line x1="567.96875" y1="113.63636363636363" x2="522.53125" y2="113.63636363636363" style="stroke:#7d8059;" />
<line x1="522.53125" y1="113.63636363636363" x2="477.09375" y2="113.63636363636363" style="stroke:#7d8059;" />
<line x1="477.09375" y1="113.63636363636363" x2="431.65625" y2="113.63636363636363" style="stroke:#7d8059;" />
<line x1="431.65625" y1="113.63636363636363" x2="386.21875" y2="113.63636363636363" style="stroke:#7d8059;" />
<line x1="386.21875" y1="113.63636363636363" x2="340.78125" y2="113.63636363636363" style="stroke:#7d8059;" />
<line x1="340.78125" y1="113.63636363636363" x2="295.34375" y2="113.63636363636363" style="stroke:#7d8059;" />
<line x1="295.34375" y1="113.63636363636363" x2="295.34375" y2="159.0909090909091" style="stroke:#7d8059;" />
<line x1="295.34375" y1="159.0909090909091" x2="340.78125" y2="159.0909090909091" style="stroke:#7d8059;" />
<line x1="340.78125" y1="159.0909090909091" x2="340.78125" y2="204.54545454545453" style="stroke:#7d8059;" />
<line x1="340.78125" y1="204.54545454545453" x2="340.78125" y2="250.0" style="stroke:#7d8059;" />
<line x1="340.78125" y1="250.0" x2="340.78125" y2="295.45454545454544" style="stroke:#7d8059;" />
<line x1="340.78125" y1="295.45454545454544" x2="340.78125" y2="340.9090909090909" style="stroke:#7d8059;" />
<line x1="340.78125" y1="340.9090909090909" x2="295.34375" y2="340.9090909090909" style="stroke:#7d8059;" />
<line x1="295.34375" y1="340.9090909090909" x2="249.90625" y2="340.9090909090909" style="stroke:#7d8059;" />
<line x1="249.90625" y1="340.9090909090909" x2="204.46875" y2="340.9090909090909" style="stroke:#7d8059;" />
<line x1="204.46875" y1="340.9090909090909" x2="204.46875" y2="386.3636363636364" style="stroke:#7d8059;" />
<line x1="204.46875" y1="386.3636363636364" x2="249.90625" y2="386.3636363636364" style="stroke:#7d8059;" />
<line x1="249.90625" y1="386.3636363636364" x2="295.34375" y2="386.3636363636364" style="stroke:#7d8059;" />
<line x1="295.34375" y1="386.3636363636364" x2="295.34375" y2="431.8181818181818" style="stroke:#7d8059;" />
<line x1="295.34375" y1="431.8181818181818" x2="340.78125" y2="431.8181818181818" style="stroke:#7d8059;" />
<line x1="340.78125" y1="431.8181818181818" x2="340.78125" y2="477.27272727272725" style="stroke:#7d8059;" />
<line x1="340.78125" y1="477.27272727272725" x2="340.78125" y2="522.7272727272727" style="stroke:#7d8059;" />
<line x1="340.78125" y1="522.7272727272727" x2="386.21875" y2="522.7272727272727" style="stroke:#7d8059;" />
<line x1="386.21875" y1="522.7272727272727" x2="431.65625" y2="522.7272727272727" style="stroke:#7d8059;" />
<line x1="431.65625" y1="522.7272727272727" x2="431.65625" y2="477.27272727272725" style="stroke:#7d8059;" />
<line x1="431.65625" y1="477.27272727272725" x2="477.09375" y2="477.27272727272725" style="stroke:#7d8059;" />
<line x1="477.09375" y1="477.27272727272725" x2="522.53125" y2="477.27272727272725" style="stroke:#7d8059;" />
<line x1="522.53125" y1="477.27272727272725" x2="522.53125" y2="431.8181818181818" style="stroke:#7d8059;" />
<line x1="522.53125" y1="431.8181818181818" x2="522.53125" y2="386.3636363636364" style="stroke:#7d8059;" />
<line x1="522.53125" y1="386.3636363636364" x2="567.96875" y2="386.3636363636364" style="stroke:#7d8059;" />
<line x1="567.96875" y1="386.3636363636364" x2="567.96875" y2="431.8181818181818" style="stroke:#7d8059;" />
<line x1="567.96875" y1="431.8181818181818" x2="567.96875" y2="477.27272727272725" style="stroke:#7d8059;" />
<line x1="567.96875" y1="477.27272727272725" x2="567.96875" y2="522.7272727272727" style="stroke:#7d8059;" />
<line x1="567.96875" y1="522.7272727272727" x2="567.96875" y2="568.1818181818181" style="stroke:#7d8059;" />
<line x1="567.96875" y1="568.1818181818181" x2="613.40625" y2="568.1818181818181" style="stroke:#7d8059;" />
<line x1="613.40625" y1="568.1818181818181" x2="613.40625" y2="613.6363636363636" style="stroke:#7d8059;" />
<line x1="613.40625" y1="613.6363636363636" x2="658.84375" y2="613.6363636363636" style="stroke:#7d8059;" />
<line x1="658.84375" y1="613.6363636363636" x2="658.84375" y2="659.0909090909091" style="stroke:#7d8059;" />
<line x1="658.84375" y1="659.0909090909091" x2="704.28125" y2="659.0909090909091" style="stroke:#7d8059;" />
<line x1="704.28125" y1="659.0909090909091" x2="704.28125" y2="704.5454545454545" style="stroke:#7d8059;" />
<line x1="704.28125" y1="704.5454545454545" x2="704.28125" y2="750.0" style="stroke:#7d8059;" />
<line x1="704.28125" y1="750.0" x2="658.84375" y2="750.0" style="stroke:#7d8059;" />
<line x1="658.84375" y1="750.0" x2="658.84375" y2="795.4545454545454" style="stroke:#7d8059;" />
<line x1="658.84375" y1="795.4545454545454" x2="704.28125" y2="795.4545454545454" style="stroke:#7d8059;" />
<line x1="704.28125" y1="795.4545454545454" x2="704.28125" y2="840.9090909090909" style="stroke:#7d8059;" />
<line x1="704.28125" y1="840.9090909090909" x2="704.28125" y2="886.3636363636364" style="stroke:#7d8059;" />
<line x1="704.28125" y1="886.3636363636364" x2="704.28125" y2="931.8181818181818" style="stroke:#7d8059;" />
<line x1="704.28125" y1="931.8181818181818" x2="658.84375" y2="931.8181818181818" style="stroke:#7d8059;" />
<line x1="658.84375" y1="931.8181818181818" x2="658.84375" y2="977.2727272727273" style="stroke:#7d8059;" />
<line x1="658.84375" y1="977.2727272727273" x2="704.28125" y2="977.2727272727273" style="stroke:#7d8059;" />
<line x1="0" y1="0" x2="727" y2="0"/>
<line x1="0" y1="0" x2="0" y2="1000"/>
</svg>
